<svg width="22" height="22" viewBox="0 0 22 22" fill="none" xmlns="http://www.w3.org/2000/svg">
<g clip-path="url(#clip0)">
<path d="M14.8233 18.5008C14.5132 18.8109 14.0249 18.8109 13.7147 18.5008C13.415 18.2011 13.415 17.7023 13.7147 17.4034L19.3359 11.7822L0.786735 11.7822C0.354335 11.7822 -0.000525111 11.4385 -0.000525111 11.0061C-0.000525111 10.5737 0.354335 10.2188 0.786735 10.2188L19.3359 10.2188L13.7147 4.60811C13.415 4.29795 13.415 3.79849 13.7147 3.49952C14.0249 3.18936 14.5132 3.18936 14.8233 3.49952L21.7752 10.4514C22.0749 10.7511 22.0749 11.2499 21.7752 11.5489L14.8233 18.5008Z" fill="#1E201D"/>
</g>
<defs>
<clipPath id="clip0">
<rect width="22" height="22" fill="white" transform="translate(22 22) rotate(-180)"/>
</clipPath>
</defs>
</svg>
